pipeline {
    agent any
    stages {
        stage('clone') {
            steps {
            git credentialsId: 'bitbucket', branch: 'master', url: 'https://kamalakar207@bitbucket.org/kamalakar207/job.git'
            }
        }
    }
}